<?xml version="1.0" encoding="utf-8"?>
<!-- Generator: Adobe Illustrator 14.0.0, SVG Export Plug-In . SVG Version: 6.00 Build 43363)  -->
<!DOCTYPE svg PUBLIC "-//W3C//DTD SVG 1.1//EN" "http://www.w3.org/Graphics/SVG/1.1/DTD/svg11.dtd">
<svg version="1.1" id="Layer_1" xmlns="http://www.w3.org/2000/svg" xmlns:xlink="http://www.w3.org/1999/xlink" x="0px" y="0px"
	 width="56.693px" height="56.693px" viewBox="0 0 56.693 56.693" enable-background="new 0 0 56.693 56.693" xml:space="preserve">
<g>
	<g>
		<g>
			<path fill="#FFFFFF" d="M49.71,10.58v31.536c0,1.935-1.57,3.5-3.511,3.5v0.433c0,1.931-1.565,3.502-3.505,3.502h-3.501
				c-1.931,0-3.5-1.577-3.5-3.502v-0.433H21.68v0.433c0,1.931-1.569,3.502-3.501,3.502H14.67c-1.932,0-3.503-1.577-3.503-3.502
				v-0.433c-1.937,0-3.501-1.565-3.501-3.5V10.58C7.663,4.778,12.368,0.072,18.179,0.072h21.015
				C45.001,0.072,49.71,4.778,49.71,10.58L49.71,10.58z M21.68,7.075h14.014V3.578H21.68V7.075z M32.191,38.611
				c0-1.94-1.571-3.503-3.507-3.503c-1.935,0-3.501,1.568-3.501,3.503c0,1.938,1.566,3.505,3.501,3.505
				C30.62,42.116,32.191,40.544,32.191,38.611L32.191,38.611z M46.199,10.58H11.165v21.022h35.034V10.58z M46.199,10.58"/>
		</g>
	</g>
	<path fill="#FFFFFF" d="M9.678,54.884l4.277-6.359h5.352l-4.278,6.359c-1.445,1.758-1.349,1.758-3.031,1.758h-1.282
		C8.823,56.642,8.793,56.075,9.678,54.884L9.678,54.884z"/>
	<path fill="#FFFFFF" d="M34.441,54.884l4.28-6.359h5.348l-4.275,6.359c-1.445,1.758-1.349,1.758-3.032,1.758H35.48
		C33.588,56.642,33.557,56.075,34.441,54.884L34.441,54.884z"/>
</g>
</svg>
